[
	{
		"name": "portal",
		"domain": "test-1.local",
		"address": [ "http://192.168.1.2:80" ]
	},
	{
		"name": "portfolio",
		"domain": "test-2.local",
		"address": [ "http://192.168.1.2:8080" ],
		"tls": true
	},
	{
		"name": "mz-operation",
		"mount": "/operation",
		"address": [ "http://0.0.0.0:32001" ]
	}
]
